…
The following code chunk selects station name and line, and then uses
`distinct()` to obtain all unique combinations. As a result, the number
of rows in this dataset is the number of unique stations.

``` r
trans_ent %>% 
  select(station_name, line) %>% 
  distinct
```

    ## # A tibble: 465 × 2
    ##    station_name             line    
    ##    <chr>                    <chr>   
    ##  1 25th St                  4 Avenue
    ##  2 36th St                  4 Avenue
    ##  3 45th St                  4 Avenue
    ##  4 53rd St                  4 Avenue
    ##  5 59th St                  4 Avenue
    ##  6 77th St                  4 Avenue
    ##  7 86th St                  4 Avenue
    ##  8 95th St                  4 Avenue
    ##  9 9th St                   4 Avenue
    ## 10 Atlantic Av-Barclays Ctr 4 Avenue
    ## # … with 455 more rows

The next code chunk is similar, but filters according to ADA compliance
as an initial step. This produces a dataframe in which the number of
rows is the number of ADA compliant stations.

``` r
trans_ent %>% 
  filter(ada == TRUE) %>% 
  select(station_name, line) %>% 
  distinct
```

    ## # A tibble: 84 × 2
    ##    station_name                   line           
    ##    <chr>                          <chr>          
    ##  1 Atlantic Av-Barclays Ctr       4 Avenue       
    ##  2 DeKalb Av                      4 Avenue       
    ##  3 Pacific St                     4 Avenue       
    ##  4 Grand Central                  42nd St Shuttle
    ##  5 34th St                        6 Avenue       
    ##  6 47-50th Sts Rockefeller Center 6 Avenue       
    ##  7 Church Av                      6 Avenue       
    ##  8 21st St                        63rd Street    
    ##  9 Lexington Av                   63rd Street    
    ## 10 Roosevelt Island               63rd Street    
    ## # … with 74 more rows
…
``` r
trans_ent %>% 
  pivot_longer(
    route1:route11,
    names_to = "route_num",
    values_to = "route") %>% 
  filter(route == "A") %>% 
  select(station_name, line) %>% 
  distinct
```

    ## # A tibble: 60 × 2
    ##    station_name                  line           
    ##    <chr>                         <chr>          
    ##  1 Times Square                  42nd St Shuttle
    ##  2 125th St                      8 Avenue       
    ##  3 145th St                      8 Avenue       
    ##  4 14th St                       8 Avenue       
    ##  5 168th St - Washington Heights 8 Avenue       
    ##  6 175th St                      8 Avenue       
    ##  7 181st St                      8 Avenue       
    ##  8 190th St                      8 Avenue       
    ##  9 34th St                       8 Avenue       
    ## 10 42nd St                       8 Avenue       
    ## # … with 50 more rows
…
``` r
Mr_Trash_data =
  read_excel ("./hw2data/Trash Wheel Collection Data.xlsx", sheet = "Mr. Trash Wheel", range = "A2:N550") %>%
  janitor::clean_names() %>%
  drop_na(dumpster) %>%
  mutate(sports_balls = as.integer(round(sports_balls))) %>%
  mutate(new = 1, .before = dumpster)%>%
  mutate(year=as.numeric(year))

Mr_Trash_data
```

    ## # A tibble: 547 × 15
    ##      new dumps…¹ month  year date                weigh…² volum…³ plast…⁴ polys…⁵
    ##    <dbl>   <dbl> <chr> <dbl> <dttm>                <dbl>   <dbl>   <dbl>   <dbl>
    ##  1     1       1 May    2014 2014-05-16 00:00:00    4.31      18    1450    1820
    ##  2     1       2 May    2014 2014-05-16 00:00:00    2.74      13    1120    1030
    ##  3     1       3 May    2014 2014-05-16 00:00:00    3.45      15    2450    3100
    ##  4     1       4 May    2014 2014-05-17 00:00:00    3.1       15    2380    2730
    ##  5     1       5 May    2014 2014-05-17 00:00:00    4.06      18     980     870
    ##  6     1       6 May    2014 2014-05-20 00:00:00    2.71      13    1430    2140
    ##  7     1       7 May    2014 2014-05-21 00:00:00    1.91       8     910    1090
    ##  8     1       8 May    2014 2014-05-28 00:00:00    3.7       16    3580    4310
    ##  9     1       9 June   2014 2014-06-05 00:00:00    2.52      14    2400    2790
    ## 10     1      10 June   2014 2014-06-11 00:00:00    3.76      18    1340    1730
    ## # … with 537 more rows, 6 more variables: cigarette_butts <dbl>,
    ## #   glass_bottles <dbl>, grocery_bags <dbl>, chip_bags <dbl>,
    ## #   sports_balls <int>, homes_powered <dbl>, and abbreviated variable names
    ## #   ¹​dumpster, ²​weight_tons, ³​volume_cubic_yards, ⁴​plastic_bottles,
    ## #   ⁵​polystyrene
…
view(Professor_Trash_Data)
```

\##now we combine Mr.Trash Wheel Data and Professor Trash Wheel Data

``` r
trash_wheel_combined = 
  bind_rows (Mr_Trash_data, Professor_Trash_Data)

view (trash_wheel_combined)
print(trash_wheel_combined)
```

    ## # A tibble: 641 × 15
    ##      new dumps…¹ month  year date                weigh…² volum…³ plast…⁴ polys…⁵
    ##    <dbl>   <dbl> <chr> <dbl> <dttm>                <dbl>   <dbl>   <dbl>   <dbl>
    ##  1     1       1 May    2014 2014-05-16 00:00:00    4.31      18    1450    1820
    ##  2     1       2 May    2014 2014-05-16 00:00:00    2.74      13    1120    1030
    ##  3     1       3 May    2014 2014-05-16 00:00:00    3.45      15    2450    3100
    ##  4     1       4 May    2014 2014-05-17 00:00:00    3.1       15    2380    2730
    ##  5     1       5 May    2014 2014-05-17 00:00:00    4.06      18     980     870
    ##  6     1       6 May    2014 2014-05-20 00:00:00    2.71      13    1430    2140
    ##  7     1       7 May    2014 2014-05-21 00:00:00    1.91       8     910    1090
    ##  8     1       8 May    2014 2014-05-28 00:00:00    3.7       16    3580    4310
    ##  9     1       9 June   2014 2014-06-05 00:00:00    2.52      14    2400    2790
    ## 10     1      10 June   2014 2014-06-11 00:00:00    3.76      18    1340    1730
    ## # … with 631 more rows, 6 more variables: cigarette_butts <dbl>,
    ## #   glass_bottles <dbl>, grocery_bags <dbl>, chip_bags <dbl>,
    ## #   sports_balls <int>, homes_powered <dbl>, and abbreviated variable names
    ## #   ¹​dumpster, ²​weight_tons, ³​volume_cubic_yards, ⁴​plastic_bottles,
    ## #   ⁵​polystyrene
…
    ## Rows: 822 Columns: 9
    ## ── Column specification ────────────────────────────────────────────────────────
    ## Delimiter: ","
    ## dbl  (8): prez_gop, gov_gop, sen_gop, rep_gop, prez_dem, gov_dem, sen_dem, r...
    ## date (1): mon
    ## 
    ## ℹ Use `spec()` to retrieve the full column specification for this data.
    ## ℹ Specify the column types or set `show_col_types = FALSE` to quiet this message.

``` r
print(polls_month_data)
```

    ## # A tibble: 822 × 9
    ##     year month     gov_gop sen_gop rep_gop gov_dem sen_dem rep_dem president
    ##    <int> <chr>       <dbl>   <dbl>   <dbl>   <dbl>   <dbl>   <dbl> <chr>    
    ##  1  1947 January        23      51     253      23      45     198 dem      
    ##  2  1947 February       23      51     253      23      45     198 dem      
    ##  3  1947 March          23      51     253      23      45     198 dem      
    ##  4  1947 April          23      51     253      23      45     198 dem      
    ##  5  1947 May            23      51     253      23      45     198 dem      
    ##  6  1947 June           23      51     253      23      45     198 dem      
    ##  7  1947 July           23      51     253      23      45     198 dem      
    ##  8  1947 August         23      51     253      23      45     198 dem      
    ##  9  1947 September      23      51     253      23      45     198 dem      
    ## 10  1947 October        23      51     253      23      45     198 dem      
    ## # … with 812 more rows

``` r
unemployment_data = 
  read.csv("./hw2data/unemployment.csv")%>%
  janitor::clean_names()%>%
  pivot_longer(
    jan:dec,
    names_to = "month",
    values_to = "unemployment_percent")%>%
  mutate(month = recode (month, "jan"= "January", "feb"="February", "mar" = "March", "apr"="April", "may"= "May", "jun"= "June", "jul"="July", "aug"="August", "sep"="September","oct"= "October", "nov"="November", "dec"="December"))

print(unemployment_data)
```

    ## # A tibble: 816 × 3
    ##     year month     unemployment_percent
    ##    <int> <chr>                    <dbl>
    ##  1  1948 January                    3.4
    ##  2  1948 February                   3.8
    ##  3  1948 March                      4  
    ##  4  1948 April                      3.9
    ##  5  1948 May                        3.5
    ##  6  1948 June                       3.6
    ##  7  1948 July                       3.6
    ##  8  1948 August                     3.9
    ##  9  1948 September                  3.8
    ## 10  1948 October                    3.7
    ## # … with 806 more rows
…
## Now we join the datasets together

``` r
combine_polls_snp =
  left_join(polls_month_data, snp_data)
```

    ## Joining, by = c("year", "month")

``` r
print(combine_polls_snp)
```

    ## # A tibble: 822 × 10
    ##     year month     gov_gop sen_gop rep_gop gov_dem sen_dem rep_dem presi…¹ close
    ##    <int> <chr>       <dbl>   <dbl>   <dbl>   <dbl>   <dbl>   <dbl> <chr>   <dbl>
    ##  1  1947 January        23      51     253      23      45     198 dem        NA
    ##  2  1947 February       23      51     253      23      45     198 dem        NA
    ##  3  1947 March          23      51     253      23      45     198 dem        NA
    ##  4  1947 April          23      51     253      23      45     198 dem        NA
    ##  5  1947 May            23      51     253      23      45     198 dem        NA
    ##  6  1947 June           23      51     253      23      45     198 dem        NA
    ##  7  1947 July           23      51     253      23      45     198 dem        NA
    ##  8  1947 August         23      51     253      23      45     198 dem        NA
    ##  9  1947 September      23      51     253      23      45     198 dem        NA
    ## 10  1947 October        23      51     253      23      45     198 dem        NA
    ## # … with 812 more rows, and abbreviated variable name ¹​president

``` r
final3_combine =
  left_join(combine_polls_snp, unemployment_data)
```

    ## Joining, by = c("year", "month")

``` r
print(final3_combine)
```

    ## # A tibble: 822 × 11
    ##     year month     gov_gop sen_gop rep_gop gov_dem sen_dem rep_dem presi…¹ close
    ##    <int> <chr>       <dbl>   <dbl>   <dbl>   <dbl>   <dbl>   <dbl> <chr>   <dbl>
    ##  1  1947 January        23      51     253      23      45     198 dem        NA
    ##  2  1947 February       23      51     253      23      45     198 dem        NA
    ##  3  1947 March          23      51     253      23      45     198 dem        NA
    ##  4  1947 April          23      51     253      23      45     198 dem        NA
    ##  5  1947 May            23      51     253      23      45     198 dem        NA
    ##  6  1947 June           23      51     253      23      45     198 dem        NA
    ##  7  1947 July           23      51     253      23      45     198 dem        NA
    ##  8  1947 August         23      51     253      23      45     198 dem        NA
    ##  9  1947 September      23      51     253      23      45     198 dem        NA
    ## 10  1947 October        23      51     253      23      45     198 dem        NA
    ## # … with 812 more rows, 1 more variable: unemployment_percent <dbl>, and
    ## #   abbreviated variable name ¹​president
…
